<svg width="2103.328125" height="1211.390625" class="scatterD3" id="scatterD3-svg-explor_var" xmlns="http://www.w3.org/2000/svg" version="1.1"><style>.scatterD3 {font: 11px Open Sans, Droid Sans, Helvetica, Verdana, sans-serif;}.scatterD3 .axis line, .axis path { stroke: #000; fill: none; shape-rendering: CrispEdges;} .scatterD3 .axis .tick line { stroke: #ddd;} .scatterD3 .axis text { fill: #000; }</style><g class="root" transform="translate(30,5)" style="cursor: move;"><rect class="viewport" width="1186.390625" height="1186.390625" style="fill: rgb(255, 255, 255);"></rect><g class="x axis" transform="translate(0,1186.390625)" fill="none" font-size="10" font-family="sans-serif" text-anchor="middle" style="font-size: 100%;"><path class="domain" stroke="currentColor" d="M0.5,-1186.390625V0.5H1186.890625V-1186.390625"></path><g class="tick" opacity="1" transform="translate(111.71689546384718,0)"><line stroke="currentColor" y2="-1186.390625"></line><text fill="currentColor" y="3" dy="0.71em">−2.5</text></g><g class="tick" opacity="1" transform="translate(227.32697390859477,0)"><line stroke="currentColor" y2="-1186.390625"></line><text fill="currentColor" y="3" dy="0.71em">−2</text></g><g class="tick" opacity="1" transform="translate(342.9370523533424,0)"><line stroke="currentColor" y2="-1186.390625"></line><text fill="currentColor" y="3" dy="0.71em">−1.5</text></g><g class="tick" opacity="1" transform="translate(458.54713079808994,0)"><line stroke="currentColor" y2="-1186.390625"></line><text fill="currentColor" y="3" dy="0.71em">−1</text></g><g class="tick" opacity="1" transform="translate(574.1572092428377,0)"><line stroke="currentColor" y2="-1186.390625"></line><text fill="currentColor" y="3" dy="0.71em">−0.5</text></g><g class="tick" opacity="1" transform="translate(689.7672876875853,0)"><line stroke="currentColor" y2="-1186.390625"></line><text fill="currentColor" y="3" dy="0.71em">0</text></g><g class="tick" opacity="1" transform="translate(805.3773661323328,0)"><line stroke="currentColor" y2="-1186.390625"></line><text fill="currentColor" y="3" dy="0.71em">0.5</text></g><g class="tick" opacity="1" transform="translate(920.9874445770804,0)"><line stroke="currentColor" y2="-1186.390625"></line><text fill="currentColor" y="3" dy="0.71em">1</text></g><g class="tick" opacity="1" transform="translate(1036.597523021828,0)"><line stroke="currentColor" y2="-1186.390625"></line><text fill="currentColor" y="3" dy="0.71em">1.5</text></g><g class="tick" opacity="1" transform="translate(1152.2076014665756,0)"><line stroke="currentColor" y2="-1186.390625"></line><text fill="currentColor" y="3" dy="0.71em">2</text></g></g><g class="y axis" fill="none" font-size="10" font-family="sans-serif" text-anchor="end" style="font-size: 100%;"><path class="domain" stroke="currentColor" d="M1186.390625,1186.890625H0.5V0.5H1186.390625"></path><g class="tick" opacity="1" transform="translate(0,1111.5128538540246)"><line stroke="currentColor" x2="1186.390625"></line><text fill="currentColor" x="-3" dy="0.32em">−1.5</text></g><g class="tick" opacity="1" transform="translate(0,995.902775409277)"><line stroke="currentColor" x2="1186.390625"></line><text fill="currentColor" x="-3" dy="0.32em">−1</text></g><g class="tick" opacity="1" transform="translate(0,880.2926969645293)"><line stroke="currentColor" x2="1186.390625"></line><text fill="currentColor" x="-3" dy="0.32em">−0.5</text></g><g class="tick" opacity="1" transform="translate(0,764.6826185197817)"><line stroke="currentColor" x2="1186.390625"></line><text fill="currentColor" x="-3" dy="0.32em">0</text></g><g class="tick" opacity="1" transform="translate(0,649.0725400750341)"><line stroke="currentColor" x2="1186.390625"></line><text fill="currentColor" x="-3" dy="0.32em">0.5</text></g><g class="tick" opacity="1" transform="translate(0,533.4624616302865)"><line stroke="currentColor" x2="1186.390625"></line><text fill="currentColor" x="-3" dy="0.32em">1</text></g><g class="tick" opacity="1" transform="translate(0,417.85238318553894)"><line stroke="currentColor" x2="1186.390625"></line><text fill="currentColor" x="-3" dy="0.32em">1.5</text></g><g class="tick" opacity="1" transform="translate(0,302.2423047407913)"><line stroke="currentColor" x2="1186.390625"></line><text fill="currentColor" x="-3" dy="0.32em">2</text></g><g class="tick" opacity="1" transform="translate(0,186.6322262960435)"><line stroke="currentColor" x2="1186.390625"></line><text fill="currentColor" x="-3" dy="0.32em">2.5</text></g><g class="tick" opacity="1" transform="translate(0,71.022147851296)"><line stroke="currentColor" x2="1186.390625"></line><text fill="currentColor" x="-3" dy="0.32em">3</text></g></g><text class="x-axis-label" transform="translate(1181.390625,1180.390625)" style="text-anchor: end; font-size: 100%;">Axis 1 (15.65%)</text><text class="y-axis-label" transform="translate(5,6) rotate(-90)" dy=".71em" style="text-anchor: end; font-size: 100%;">Axis 2 (10.8%)</text><svg class="chart-body" width="1186.390625" height="1186.390625"><line transform="translate(745.6850059686219,295.96180081855397)" class="point-label-line label-line-UsesWikipediaProCheckSomething-UsesWikipediaProCheckSomething_Other_Sources_preferred color color-cUsesWikipediaProCheckSomething symbol symbol-c" x1="2.4924516441263083" x2="4" y1="20.191887782462956" y2="32.40486182357358" style="stroke: rgb(31, 119, 180);"></line><line transform="translate(765.1074991473396,653.8906036834926)" class="point-label-line label-line-UsesWikipediaProTrain-UsesWikipediaProTrain_Sometimes color color-cUsesWikipediaProTrain symbol symbol-c" x1="9.361639031745076" x2="14.15625" y1="-7.9617678432832655" y2="-12.039427673859905" style="stroke: rgb(44, 160, 44);"></line><line transform="translate(758.8645549113234,655.7403649386085)" class="point-label-line label-line-UsesWikipediaProWatchCuriosity-UsesWikipediaProWatchCuriosity_Sometimes color color-cUsesWikipediaProWatchCuriosity symbol symbol-c" x1="-12.147583439206356" x2="-27.9296875" y1="-1.289964613901986" y2="-2.9658827809372497" style="stroke: rgb(255, 127, 14);"></line><line transform="translate(812.5076313096862,889.5039435538881)" class="point-label-line label-line-UsesWikipediaProTrain-UsesWikipediaProTrain_Often color color-cUsesWikipediaProTrain symbol symbol-c" x1="18.609089195569865" x2="26.7177734375" y1="-8.504586489679474" y2="-12.210356596333213" style="stroke: rgb(44, 160, 44);"></line><line transform="translate(811.1203103683492,890.8912644952251)" class="point-label-line label-line-UsesWikipediaProWatchCuriosity-UsesWikipediaProWatchCuriosity_Often color color-cUsesWikipediaProWatchCuriosity symbol symbol-c" x1="-17.872279005278006" x2="-23.4912109375" y1="8.6642801896162" y2="11.388275300299938" style="stroke: rgb(255, 127, 14);"></line><line transform="translate(458.2783509549795,793.3163582878582)" class="point-label-line label-line-UsesWikipediaProCheckSomething-UsesWikipediaProCheckSomething_Not_that_need color color-cUsesWikipediaProCheckSomething symbol symbol-c" x1="-3.683664437386384" x2="-6" y1="-21.568116997080093" y2="-35.1304262866837" style="stroke: rgb(31, 119, 180);"></line><line transform="translate(461.97787346521136,789.1543954638472)" class="point-label-line label-line-UsesWikipediaProSettleDebate-UsesWikipediaProSettleDebate_Not_that_need color color-cUsesWikipediaProSettleDebate symbol symbol-c" x1="15.453133156883379" x2="25" y1="15.408377096742703" y2="24.927593874189938" style="stroke: rgb(214, 39, 40);"></line><line transform="translate(309.37256991814456,818.2881352319237)" class="point-label-line label-line-UsesWikipediaProTrain-UsesWikipediaProTrain_Not_that_need color color-cUsesWikipediaProTrain symbol symbol-c" x1="-5.081241672789106" x2="-6.9248046875" y1="-25.498646690809128" y2="-34.75" style="stroke: rgb(44, 160, 44);"></line><line transform="translate(335.73166780354705,814.1261724079127)" class="point-label-line label-line-UsesWikipediaProWatchCuriosity-UsesWikipediaProWatchCuriosity_Not_that_need color color-cUsesWikipediaProWatchCuriosity symbol symbol-c" x1="0.7261824915452911" x2="1" y1="24.710871956203807" y2="34.028460123873174" style="stroke: rgb(255, 127, 14);"></line><path class="line" d="M0,764.1826185197817L1186.390625,764.1826185197817" style="stroke-width: 1px; stroke: rgb(0, 0, 0); stroke-dasharray: 5;"></path><path class="line" d="M689.2672876875853,0L689.2672876875853,1186.390625" style="stroke-width: 1px; stroke: rgb(0, 0, 0); stroke-dasharray: 5;"></path><path transform="translate(458.2783509549795,793.3163582878582)" d="M17.91914218648987,0A17.91914218648987,17.91914218648987,0,1,1,-17.91914218648987,0A17.91914218648987,17.91914218648987,0,1,1,17.91914218648987,0" class="dot symbol symbol-c color color-cUsesWikipediaProCheckSomething" style="fill: rgb(31, 119, 180); opacity: 1;"></path><path transform="translate(745.6850059686219,295.96180081855397)" d="M16.18675506738611,0A16.18675506738611,16.18675506738611,0,1,1,-16.18675506738611,0A16.18675506738611,16.18675506738611,0,1,1,16.18675506738611,0" class="dot symbol symbol-c color color-cUsesWikipediaProCheckSomething" style="fill: rgb(31, 119, 180); opacity: 1;"></path><path transform="translate(795.628559856753,612.7334157571623)" d="M7.489534715262012,0A7.489534715262012,7.489534715262012,0,1,1,-7.489534715262012,0A7.489534715262012,7.489534715262012,0,1,1,7.489534715262012,0" class="dot symbol symbol-c color color-cUsesWikipediaProCheckSomething" style="fill: rgb(31, 119, 180); opacity: 1;"></path><path transform="translate(830.5428035470667,757.0147936562074)" d="M6.180387232371033,0A6.180387232371033,6.180387232371033,0,1,1,-6.180387232371033,0A6.180387232371033,6.180387232371033,0,1,1,6.180387232371033,0" class="dot symbol symbol-c color color-cUsesWikipediaProCheckSomething" style="fill: rgb(31, 119, 180); opacity: 1;"></path><path transform="translate(849.5028564120054,947.5402029331515)" d="M14.842952392906641,0A14.842952392906641,14.842952392906641,0,1,1,-14.842952392906641,0A14.842952392906641,14.842952392906641,0,1,1,14.842952392906641,0" class="dot symbol symbol-c color color-cUsesWikipediaProCheckSomething" style="fill: rgb(31, 119, 180); opacity: 1;"></path><path transform="translate(461.97787346521136,789.1543954638472)" d="M17.853673445688514,0A17.853673445688514,17.853673445688514,0,1,1,-17.853673445688514,0A17.853673445688514,17.853673445688514,0,1,1,17.853673445688514,0" class="dot symbol symbol-c color color-cUsesWikipediaProSettleDebate" style="fill: rgb(214, 39, 40); opacity: 1;"></path><path transform="translate(740.1357222032742,275.6144270122784)" d="M16.664864881977884,0A16.664864881977884,16.664864881977884,0,1,1,-16.664864881977884,0A16.664864881977884,16.664864881977884,0,1,1,16.664864881977884,0" class="dot symbol symbol-c color color-cUsesWikipediaProSettleDebate" style="fill: rgb(214, 39, 40); opacity: 1;"></path><path transform="translate(812.0451909959072,685.3365450204637)" d="M6.698268316440472,0A6.698268316440472,6.698268316440472,0,1,1,-6.698268316440472,0A6.698268316440472,6.698268316440472,0,1,1,6.698268316440472,0" class="dot symbol symbol-c color color-cUsesWikipediaProSettleDebate" style="fill: rgb(214, 39, 40); opacity: 1;"></path><path transform="translate(836.7857477830831,791.4665970327421)" d="M6.946403210076459,0A6.946403210076459,6.946403210076459,0,1,1,-6.946403210076459,0A6.946403210076459,6.946403210076459,0,1,1,6.946403210076459,0" class="dot symbol symbol-c color color-cUsesWikipediaProSettleDebate" style="fill: rgb(214, 39, 40); opacity: 1;"></path><path transform="translate(877.0180550818554,1016.90625)" d="M13.974600606352746,0A13.974600606352746,13.974600606352746,0,1,1,-13.974600606352746,0A13.974600606352746,13.974600606352746,0,1,1,13.974600606352746,0" class="dot symbol symbol-c color color-cUsesWikipediaProSettleDebate" style="fill: rgb(214, 39, 40); opacity: 1;"></path><path transform="translate(309.37256991814456,818.2881352319237)" d="M22.56758334191025,0A22.56758334191025,22.56758334191025,0,1,1,-22.56758334191025,0A22.56758334191025,22.56758334191025,0,1,1,22.56758334191025,0" class="dot symbol symbol-c color color-cUsesWikipediaProTrain" style="fill: rgb(44, 160, 44); opacity: 1;"></path><path transform="translate(674.700417803547,169.48437500000006)" d="M15.730540415096286,0A15.730540415096286,15.730540415096286,0,1,1,-15.730540415096286,0A15.730540415096286,15.730540415096286,0,1,1,15.730540415096286,0" class="dot symbol symbol-c color color-cUsesWikipediaProTrain" style="fill: rgb(44, 160, 44); opacity: 1;"></path><path transform="translate(727.8810538881309,482.55646742837655)" d="M10.622417151705552,0A10.622417151705552,10.622417151705552,0,1,1,-10.622417151705552,0A10.622417151705552,10.622417151705552,0,1,1,10.622417151705552,0" class="dot symbol symbol-c color color-cUsesWikipediaProTrain" style="fill: rgb(44, 160, 44); opacity: 1;"></path><path transform="translate(765.1074991473396,653.8906036834926)" d="M7.096859160137447,0A7.096859160137447,7.096859160137447,0,1,1,-7.096859160137447,0A7.096859160137447,7.096859160137447,0,1,1,7.096859160137447,0" class="dot symbol symbol-c color color-cUsesWikipediaProTrain" style="fill: rgb(44, 160, 44); opacity: 1;"></path><path transform="translate(812.5076313096862,889.5039435538881)" d="M16.316765132074504,0A16.316765132074504,16.316765132074504,0,1,1,-16.316765132074504,0A16.316765132074504,16.316765132074504,0,1,1,16.316765132074504,0" class="dot symbol symbol-c color color-cUsesWikipediaProTrain" style="fill: rgb(44, 160, 44); opacity: 1;"></path><path transform="translate(335.73166780354705,814.1261724079127)" d="M21.12499557216937,0A21.12499557216937,21.12499557216937,0,1,1,-21.12499557216937,0A21.12499557216937,21.12499557216937,0,1,1,21.12499557216937,0" class="dot symbol symbol-c color color-cUsesWikipediaProWatchCuriosity" style="fill: rgb(255, 127, 14); opacity: 1;"></path><path transform="translate(685.3365450204637,210.41034276944063)" d="M11.750028597992298,0A11.750028597992298,11.750028597992298,0,1,1,-11.750028597992298,0A11.750028597992298,11.750028597992298,0,1,1,11.750028597992298,0" class="dot symbol symbol-c color color-cUsesWikipediaProWatchCuriosity" style="fill: rgb(255, 127, 14); opacity: 1;"></path><path transform="translate(732.7366771828104,531.8063608458391)" d="M9.453296839295165,0A9.453296839295165,9.453296839295165,0,1,1,-9.453296839295165,0A9.453296839295165,9.453296839295165,0,1,1,9.453296839295165,0" class="dot symbol symbol-c color color-cUsesWikipediaProWatchCuriosity" style="fill: rgb(255, 127, 14); opacity: 1;"></path><path transform="translate(758.8645549113234,655.7403649386085)" d="M7.013872635117342,0A7.013872635117342,7.013872635117342,0,1,1,-7.013872635117342,0A7.013872635117342,7.013872635117342,0,1,1,7.013872635117342,0" class="dot symbol symbol-c color color-cUsesWikipediaProWatchCuriosity" style="fill: rgb(255, 127, 14); opacity: 1;"></path><path transform="translate(811.1203103683492,890.8912644952251)" d="M15.641281371154884,0A15.641281371154884,15.641281371154884,0,1,1,-15.641281371154884,0A15.641281371154884,15.641281371154884,0,1,1,15.641281371154884,0" class="dot symbol symbol-c color color-cUsesWikipediaProWatchCuriosity" style="fill: rgb(255, 127, 14); opacity: 1;"></path><text text-anchor="middle" class="point-label color color-cUsesWikipediaProCheckSomething symbol symbol-c" transform="translate(458.2783509549795,793.3163582878582)" dx="-6px" dy="-37.8804262866837px" style="font-size: 10px; fill: rgb(31, 119, 180);">UsesWikipediaProCheckSomething_Not that need</text><text text-anchor="middle" class="point-label color color-cUsesWikipediaProCheckSomething symbol symbol-c" transform="translate(745.6850059686219,295.96180081855397)" dx="4px" dy="40.65486182357358px" style="font-size: 10px; fill: rgb(31, 119, 180);">UsesWikipediaProCheckSomething_Other Sources preferred</text><text text-anchor="middle" class="point-label color color-cUsesWikipediaProCheckSomething symbol symbol-c" transform="translate(795.628559856753,612.7334157571623)" dx="0px" dy="-12.63742732377835px" style="font-size: 10px; fill: rgb(31, 119, 180);">UsesWikipediaProCheckSomething_Rarely</text><text text-anchor="middle" class="point-label color color-cUsesWikipediaProCheckSomething symbol symbol-c" transform="translate(830.5428035470667,757.0147936562074)" dx="0px" dy="-11.477225575051662px" style="font-size: 10px; fill: rgb(31, 119, 180);">UsesWikipediaProCheckSomething_Sometimes</text><text text-anchor="middle" class="point-label color color-cUsesWikipediaProCheckSomething symbol symbol-c" transform="translate(849.5028564120054,947.5402029331515)" dx="0px" dy="-19.15422406380731px" style="font-size: 10px; fill: rgb(31, 119, 180);">UsesWikipediaProCheckSomething_Often</text><text text-anchor="middle" class="point-label color color-cUsesWikipediaProSettleDebate symbol symbol-c" transform="translate(461.97787346521136,789.1543954638472)" dx="25px" dy="33.17759387418994px" style="font-size: 10px; fill: rgb(214, 39, 40);">UsesWikipediaProSettleDebate_Not that need</text><text text-anchor="middle" class="point-label color color-cUsesWikipediaProSettleDebate symbol symbol-c" transform="translate(740.1357222032742,275.6144270122784)" dx="0px" dy="-20.768851967440895px" style="font-size: 10px; fill: rgb(214, 39, 40);">UsesWikipediaProSettleDebate_Other Sources preferred</text><text text-anchor="middle" class="point-label color color-cUsesWikipediaProSettleDebate symbol symbol-c" transform="translate(812.0451909959072,685.3365450204637)" dx="0px" dy="-11.936185735936661px" style="font-size: 10px; fill: rgb(214, 39, 40);">UsesWikipediaProSettleDebate_Rarely</text><text text-anchor="middle" class="point-label color color-cUsesWikipediaProSettleDebate symbol symbol-c" transform="translate(836.7857477830831,791.4665970327421)" dx="0px" dy="-12.156089559821229px" style="font-size: 10px; fill: rgb(214, 39, 40);">UsesWikipediaProSettleDebate_Sometimes</text><text text-anchor="middle" class="point-label color color-cUsesWikipediaProSettleDebate symbol symbol-c" transform="translate(877.0180550818554,1016.90625)" dx="0px" dy="-18.38466732979824px" style="font-size: 10px; fill: rgb(214, 39, 40);">UsesWikipediaProSettleDebate_Often</text><text text-anchor="middle" class="point-label color color-cUsesWikipediaProTrain symbol symbol-c" transform="translate(309.37256991814456,818.2881352319237)" dx="-97px" dy="-32px" style="font-size: 10px; fill: rgb(44, 160, 44);">UsesWikipediaProTrain_Not that need</text><text text-anchor="middle" class="point-label color color-cUsesWikipediaProTrain symbol symbol-c" transform="translate(674.700417803547,169.48437500000006)" dx="0px" dy="-19.94082846778113px" style="font-size: 10px; fill: rgb(44, 160, 44);">UsesWikipediaProTrain_Other Sources preferred</text><text text-anchor="middle" class="point-label color color-cUsesWikipediaProTrain symbol symbol-c" transform="translate(727.8810538881309,482.55646742837655)" dx="0px" dy="-15.413872093232653px" style="font-size: 10px; fill: rgb(44, 160, 44);">UsesWikipediaProTrain_Rarely</text><text text-anchor="middle" class="point-label color color-cUsesWikipediaProTrain symbol symbol-c" transform="translate(765.1074991473396,653.8906036834926)" dx="99px" dy="-9.289427673859905px" style="font-size: 10px; fill: rgb(44, 160, 44);">UsesWikipediaProTrain_Sometimes</text><text text-anchor="middle" class="point-label color color-cUsesWikipediaProTrain symbol symbol-c" transform="translate(812.5076313096862,889.5039435538881)" dx="99px" dy="-9.460356596333213px" style="font-size: 10px; fill: rgb(44, 160, 44);">UsesWikipediaProTrain_Often</text><text text-anchor="middle" class="point-label color color-cUsesWikipediaProWatchCuriosity symbol symbol-c" transform="translate(335.73166780354705,814.1261724079127)" dx="1px" dy="42.278460123873174px" style="font-size: 10px; fill: rgb(255, 127, 14);">UsesWikipediaProWatchCuriosity_Not that need</text><text text-anchor="middle" class="point-label color color-cUsesWikipediaProWatchCuriosity symbol symbol-c" transform="translate(685.3365450204637,210.41034276944063)" dx="0px" dy="-16.413191718380695px" style="font-size: 10px; fill: rgb(255, 127, 14);">UsesWikipediaProWatchCuriosity_Other Sources preferred</text><text text-anchor="middle" class="point-label color color-cUsesWikipediaProWatchCuriosity symbol symbol-c" transform="translate(732.7366771828104,531.8063608458391)" dx="0px" dy="-14.377766193280829px" style="font-size: 10px; fill: rgb(255, 127, 14);">UsesWikipediaProWatchCuriosity_Rarely</text><text text-anchor="middle" class="point-label color color-cUsesWikipediaProWatchCuriosity symbol symbol-c" transform="translate(758.8645549113234,655.7403649386085)" dx="-135px" dy="-0.21588278093724966px" style="font-size: 10px; fill: rgb(255, 127, 14);">UsesWikipediaProWatchCuriosity_Sometimes</text><text text-anchor="middle" class="point-label color color-cUsesWikipediaProWatchCuriosity symbol symbol-c" transform="translate(811.1203103683492,890.8912644952251)" dx="-118px" dy="14.138275300299938px" style="font-size: 10px; fill: rgb(255, 127, 14);">UsesWikipediaProWatchCuriosity_Often</text></svg></g><defs><marker id="arrow-head-explor_var-#1f77b4" markerWidth="10" markerHeight="10" refX="10" refY="4" orient="auto"><path d="M0,0 L0,8 L10,4 L0,0" style="fill: rgb(31, 119, 180);"></path></marker><marker id="arrow-head-explor_var-#d62728" markerWidth="10" markerHeight="10" refX="10" refY="4" orient="auto"><path d="M0,0 L0,8 L10,4 L0,0" style="fill: rgb(214, 39, 40);"></path></marker><marker id="arrow-head-explor_var-#2ca02c" markerWidth="10" markerHeight="10" refX="10" refY="4" orient="auto"><path d="M0,0 L0,8 L10,4 L0,0" style="fill: rgb(44, 160, 44);"></path></marker><marker id="arrow-head-explor_var-#ff7f0e" markerWidth="10" markerHeight="10" refX="10" refY="4" orient="auto"><path d="M0,0 L0,8 L10,4 L0,0" style="fill: rgb(255, 127, 14);"></path></marker><marker id="arrow-head-explor_var-#9467bd" markerWidth="10" markerHeight="10" refX="10" refY="4" orient="auto"><path d="M0,0 L0,8 L10,4 L0,0" style="fill: rgb(148, 103, 189);"></path></marker><marker id="arrow-head-explor_var-#8c564b" markerWidth="10" markerHeight="10" refX="10" refY="4" orient="auto"><path d="M0,0 L0,8 L10,4 L0,0" style="fill: rgb(140, 86, 75);"></path></marker><marker id="arrow-head-explor_var-#e377c2" markerWidth="10" markerHeight="10" refX="10" refY="4" orient="auto"><path d="M0,0 L0,8 L10,4 L0,0" style="fill: rgb(227, 119, 194);"></path></marker><marker id="arrow-head-explor_var-#7f7f7f" markerWidth="10" markerHeight="10" refX="10" refY="4" orient="auto"><path d="M0,0 L0,8 L10,4 L0,0" style="fill: rgb(127, 127, 127);"></path></marker><marker id="arrow-head-explor_var-#bcbd22" markerWidth="10" markerHeight="10" refX="10" refY="4" orient="auto"><path d="M0,0 L0,8 L10,4 L0,0" style="fill: rgb(188, 189, 34);"></path></marker><marker id="arrow-head-explor_var-#17becf" markerWidth="10" markerHeight="10" refX="10" refY="4" orient="auto"><path d="M0,0 L0,8 L10,4 L0,0" style="fill: rgb(23, 190, 207);"></path></marker></defs><g class="legend" style="font-size: 100%;"><g class="color-legend-label" transform="translate(1240.390625, 50)"><text style="fill: rgb(0, 0, 0); font-weight: bold;">Variable</text></g><g class="color-legend" transform="translate(1240.390625, 62)"><g class="legendCells"><g class="cell" transform="translate(0, 0)"><rect class="swatch" height="15" width="15" style="fill: rgb(31, 119, 180);"></rect><text class="label" transform="translate( 25, 12.5)">UsesWikipediaProCheckSomething</text></g><g class="cell" transform="translate(0, 18)"><rect class="swatch" height="15" width="15" style="fill: rgb(214, 39, 40);"></rect><text class="label" transform="translate( 25, 12.5)">UsesWikipediaProSettleDebate</text></g><g class="cell" transform="translate(0, 36)"><rect class="swatch" height="15" width="15" style="fill: rgb(44, 160, 44);"></rect><text class="label" transform="translate( 25, 12.5)">UsesWikipediaProTrain</text></g><g class="cell" transform="translate(0, 54)"><rect class="swatch" height="15" width="15" style="fill: rgb(255, 127, 14);"></rect><text class="label" transform="translate( 25, 12.5)">UsesWikipediaProWatchCuriosity</text></g></g></g><g><text class="size-legend-label" transform="translate(1240.390625, 160)" style="fill: rgb(0, 0, 0); font-weight: bold; opacity: 1;">Contrib</text></g><g class="size-legend" transform="translate(1248.390625, 174)" style="opacity: 1;"><g class="legendCells"><g class="cell" transform="translate(0, 6.085805892944336)"><circle class="swatch" r="6.085806194501846"></circle><text class="label" transform="translate( 32.22222137451172,
          5)">3.8</text></g><g class="cell" transform="translate(0, 21.257417678833008)"><circle class="swatch" r="10.119910201431939"></circle><text class="label" transform="translate( 32.22222137451172,
          5)">8.4</text></g><g class="cell" transform="translate(0, 44.49723815917969)"><circle class="swatch" r="14.154014208362034"></circle><text class="label" transform="translate( 32.22222137451172,
          5)">13.0</text></g><g class="cell" transform="translate(0, 75.80526733398438)"><circle class="swatch" r="18.188118215292125"></circle><text class="label" transform="translate( 32.22222137451172,
          5)">17.6</text></g><g class="cell" transform="translate(0, 115.18150329589844)"><circle class="swatch" r="22.22222222222222"></circle><text class="label" transform="translate( 32.22222137451172,
          5)">22.3</text></g></g></g></g></svg>