<svg width="2103.328125" height="1211.390625" class="scatterD3" id="scatterD3-svg-explor_var" xmlns="http://www.w3.org/2000/svg" version="1.1"><style>.scatterD3 {font: 11px Open Sans, Droid Sans, Helvetica, Verdana, sans-serif;}.scatterD3 .axis line, .axis path { stroke: #000; fill: none; shape-rendering: CrispEdges;} .scatterD3 .axis .tick line { stroke: #ddd;} .scatterD3 .axis text { fill: #000; }</style><g class="root" transform="translate(30,5)" style="cursor: move;"><rect class="viewport" width="1186.390625" height="1186.390625" style="fill: rgb(255, 255, 255);"></rect><g class="x axis" transform="translate(0,1186.390625)" fill="none" font-size="10" font-family="sans-serif" text-anchor="middle" style="font-size: 100%;"><path class="domain" stroke="currentColor" d="M0.5,-1186.390625V0.5H1186.890625V-1186.390625"></path><g class="tick" opacity="1" transform="translate(58.71465156057806,0)"><line stroke="currentColor" y2="-1186.390625"></line><text fill="currentColor" y="3" dy="0.71em">−1</text></g><g class="tick" opacity="1" transform="translate(189.00706776599012,0)"><line stroke="currentColor" y2="-1186.390625"></line><text fill="currentColor" y="3" dy="0.71em">−0.5</text></g><g class="tick" opacity="1" transform="translate(319.2994839714022,0)"><line stroke="currentColor" y2="-1186.390625"></line><text fill="currentColor" y="3" dy="0.71em">0</text></g><g class="tick" opacity="1" transform="translate(449.59190017681425,0)"><line stroke="currentColor" y2="-1186.390625"></line><text fill="currentColor" y="3" dy="0.71em">0.5</text></g><g class="tick" opacity="1" transform="translate(579.8843163822263,0)"><line stroke="currentColor" y2="-1186.390625"></line><text fill="currentColor" y="3" dy="0.71em">1</text></g><g class="tick" opacity="1" transform="translate(710.1767325876384,0)"><line stroke="currentColor" y2="-1186.390625"></line><text fill="currentColor" y="3" dy="0.71em">1.5</text></g><g class="tick" opacity="1" transform="translate(840.4691487930505,0)"><line stroke="currentColor" y2="-1186.390625"></line><text fill="currentColor" y="3" dy="0.71em">2</text></g><g class="tick" opacity="1" transform="translate(970.7615649984625,0)"><line stroke="currentColor" y2="-1186.390625"></line><text fill="currentColor" y="3" dy="0.71em">2.5</text></g><g class="tick" opacity="1" transform="translate(1101.0539812038746,0)"><line stroke="currentColor" y2="-1186.390625"></line><text fill="currentColor" y="3" dy="0.71em">3</text></g></g><g class="y axis" fill="none" font-size="10" font-family="sans-serif" text-anchor="end" style="font-size: 100%;"><path class="domain" stroke="currentColor" d="M1186.390625,1186.890625H0.5V0.5H1186.390625"></path><g class="tick" opacity="1" transform="translate(0,1126.0701251153139)"><line stroke="currentColor" x2="1186.390625"></line><text fill="currentColor" x="-3" dy="0.32em">−2</text></g><g class="tick" opacity="1" transform="translate(0,995.7777089099017)"><line stroke="currentColor" x2="1186.390625"></line><text fill="currentColor" x="-3" dy="0.32em">−1.5</text></g><g class="tick" opacity="1" transform="translate(0,865.4852927044897)"><line stroke="currentColor" x2="1186.390625"></line><text fill="currentColor" x="-3" dy="0.32em">−1</text></g><g class="tick" opacity="1" transform="translate(0,735.1928764990776)"><line stroke="currentColor" x2="1186.390625"></line><text fill="currentColor" x="-3" dy="0.32em">−0.5</text></g><g class="tick" opacity="1" transform="translate(0,604.9004602936654)"><line stroke="currentColor" x2="1186.390625"></line><text fill="currentColor" x="-3" dy="0.32em">0</text></g><g class="tick" opacity="1" transform="translate(0,474.60804408825345)"><line stroke="currentColor" x2="1186.390625"></line><text fill="currentColor" x="-3" dy="0.32em">0.5</text></g><g class="tick" opacity="1" transform="translate(0,344.31562788284134)"><line stroke="currentColor" x2="1186.390625"></line><text fill="currentColor" x="-3" dy="0.32em">1</text></g><g class="tick" opacity="1" transform="translate(0,214.02321167742926)"><line stroke="currentColor" x2="1186.390625"></line><text fill="currentColor" x="-3" dy="0.32em">1.5</text></g><g class="tick" opacity="1" transform="translate(0,83.73079547201718)"><line stroke="currentColor" x2="1186.390625"></line><text fill="currentColor" x="-3" dy="0.32em">2</text></g></g><text class="x-axis-label" transform="translate(1181.390625,1180.390625)" style="text-anchor: end; font-size: 100%;">Axis 1 (11.98%)</text><text class="y-axis-label" transform="translate(5,6) rotate(-90)" dy=".71em" style="text-anchor: end; font-size: 100%;">Axis 2 (10.82%)</text><svg class="chart-body" width="1186.390625" height="1186.390625"><line transform="translate(169.484375,511.89284478782287)" class="point-label-line label-line-PageofAccessWhyOpened-Look_up_a_piece_of_information_out_of_curiosity_while_watching_or_reading_something_else color color-cPageofAccessWhyOpened symbol symbol-c" x1="17.352145485716783" x2="47" y1="-9.635146269052036" y2="-26.097745377838464" style="stroke: rgb(31, 119, 180);"></line><path class="line" d="M0,604.4004602936654L1186.390625,604.4004602936654" style="stroke-width: 1px; stroke: rgb(0, 0, 0); stroke-dasharray: 5;"></path><path class="line" d="M318.7994839714022,0L318.7994839714022,1186.390625" style="stroke-width: 1px; stroke: rgb(0, 0, 0); stroke-dasharray: 5;"></path><path transform="translate(698.7321696263839,862.3794443803813)" d="M9.506663294905408,0A9.506663294905408,9.506663294905408,0,1,1,-9.506663294905408,0A9.506663294905408,9.506663294905408,0,1,1,9.506663294905408,0" class="dot symbol symbol-c color color-cPageofAccessWhyOpened" style="fill: rgb(31, 119, 180); opacity: 1;"></path><path transform="translate(381.8610134148216,794.8879727859779)" d="M6.180387232371033,0A6.180387232371033,6.180387232371033,0,1,1,-6.180387232371033,0A6.180387232371033,6.180387232371033,0,1,1,6.180387232371033,0" class="dot symbol symbol-c color color-cPageofAccessWhyOpened" style="fill: rgb(31, 119, 180); opacity: 1;"></path><path transform="translate(1016.9062500000001,252.08976687423117)" d="M22.56758334191025,0A22.56758334191025,22.56758334191025,0,1,1,-22.56758334191025,0A22.56758334191025,22.56758334191025,0,1,1,22.56758334191025,0" class="dot symbol symbol-c color color-cPageofAccessWhyOpened" style="fill: rgb(31, 119, 180); opacity: 1;"></path><path transform="translate(416.77938095787204,242.18754324262005)" d="M14.684242197908901,0A14.684242197908901,14.684242197908901,0,1,1,-14.684242197908901,0A14.684242197908901,14.684242197908901,0,1,1,14.684242197908901,0" class="dot symbol symbol-c color color-cPageofAccessWhyOpened" style="fill: rgb(31, 119, 180); opacity: 1;"></path><path transform="translate(462.3817266297663,965.8316228474786)" d="M18.08581800717208,0A18.08581800717208,18.08581800717208,0,1,1,-18.08581800717208,0A18.08581800717208,18.08581800717208,0,1,1,18.08581800717208,0" class="dot symbol symbol-c color color-cPageofAccessWhyOpened" style="fill: rgb(31, 119, 180); opacity: 1;"></path><path transform="translate(169.484375,511.89284478782287)" d="M15.625507395596118,0A15.625507395596118,15.625507395596118,0,1,1,-15.625507395596118,0A15.625507395596118,15.625507395596118,0,1,1,15.625507395596118,0" class="dot symbol symbol-c color color-cPageofAccessWhyOpened" style="fill: rgb(31, 119, 180); opacity: 1;"></path><path transform="translate(277.36649561808116,756.3214175891759)" d="M10.209943503589859,0A10.209943503589859,10.209943503589859,0,1,1,-10.209943503589859,0A10.209943503589859,10.209943503589859,0,1,1,10.209943503589859,0" class="dot symbol symbol-c color color-cPageofAccessWhyOpened" style="fill: rgb(31, 119, 180); opacity: 1;"></path><path transform="translate(743.2921759686348,885.050324800123)" d="M8.865358629775983,0A8.865358629775983,8.865358629775983,0,1,1,-8.865358629775983,0A8.865358629775983,8.865358629775983,0,1,1,8.865358629775983,0" class="dot symbol symbol-c color color-cPageofAccessWhyOpened" style="fill: rgb(31, 119, 180); opacity: 1;"></path><path transform="translate(228.89771678966787,220.55900215252154)" d="M19.86396279075992,0A19.86396279075992,19.86396279075992,0,1,1,-19.86396279075992,0A19.86396279075992,19.86396279075992,0,1,1,19.86396279075992,0" class="dot symbol symbol-c color color-cPageofAccessknowledgeSubject" style="fill: rgb(214, 39, 40); opacity: 1;"></path><path transform="translate(211.43853301814266,655.9962571110087)" d="M9.0731299983769,0A9.0731299983769,9.0731299983769,0,1,1,-9.0731299983769,0A9.0731299983769,9.0731299983769,0,1,1,9.0731299983769,0" class="dot symbol symbol-c color color-cPageofAccessknowledgeSubject" style="fill: rgb(214, 39, 40); opacity: 1;"></path><path transform="translate(288.3110585793358,702.6409421125462)" d="M9.879165533976137,0A9.879165533976137,9.879165533976137,0,1,1,-9.879165533976137,0A9.879165533976137,9.879165533976137,0,1,1,9.879165533976137,0" class="dot symbol symbol-c color color-cPageofAccessknowledgeSubject" style="fill: rgb(214, 39, 40); opacity: 1;"></path><path transform="translate(836.0603763068882,567.3974140913285)" d="M21.90848356019456,0A21.90848356019456,21.90848356019456,0,1,1,-21.90848356019456,0A21.90848356019456,21.90848356019456,0,1,1,21.90848356019456,0" class="dot symbol symbol-c color color-cPageofAccessknowledgeSubject" style="fill: rgb(214, 39, 40); opacity: 1;"></path><text text-anchor="middle" class="point-label color color-cPageofAccessWhyOpened symbol symbol-c" transform="translate(698.7321696263839,862.3794443803813)" dx="0px" dy="-14.425060983158605px" style="font-size: 10px; fill: rgb(31, 119, 180);">Check something for a school assignment or professional document</text><text text-anchor="middle" class="point-label color color-cPageofAccessWhyOpened symbol symbol-c" transform="translate(381.8610134148216,794.8879727859779)" dx="0px" dy="-11.477225575051662px" style="font-size: 10px; fill: rgb(31, 119, 180);">Collect information for a school/professional document</text><text text-anchor="middle" class="point-label color color-cPageofAccessWhyOpened symbol symbol-c" transform="translate(1016.9062500000001,252.08976687423117)" dx="0px" dy="-26px" style="font-size: 10px; fill: rgb(31, 119, 180);">Contribute to Wikipedia</text><text text-anchor="middle" class="point-label color color-cPageofAccessWhyOpened symbol symbol-c" transform="translate(416.77938095787204,242.18754324262005)" dx="0px" dy="-19.013570815656458px" style="font-size: 10px; fill: rgb(31, 119, 180);">None of these</text><text text-anchor="middle" class="point-label color color-cPageofAccessWhyOpened symbol symbol-c" transform="translate(462.3817266297663,965.8316228474786)" dx="0px" dy="-22.02813888679424px" style="font-size: 10px; fill: rgb(31, 119, 180);">Learn, deepen a point in a professional or study context</text><text text-anchor="middle" class="point-label color color-cPageofAccessWhyOpened symbol symbol-c" transform="translate(169.484375,511.89284478782287)" dx="47px" dy="-28.847745377838464px" style="font-size: 10px; fill: rgb(31, 119, 180);">Look up a piece of information out of curiosity while watching or reading something else</text><text text-anchor="middle" class="point-label color color-cPageofAccessWhyOpened symbol symbol-c" transform="translate(277.36649561808116,756.3214175891759)" dx="0px" dy="-15.0483268402328px" style="font-size: 10px; fill: rgb(31, 119, 180);">Read the encyclopedia for information and culture, like one would listen to a podcast</text><text text-anchor="middle" class="point-label color color-cPageofAccessWhyOpened symbol symbol-c" transform="translate(743.2921759686348,885.050324800123)" dx="0px" dy="-13.856719521502445px" style="font-size: 10px; fill: rgb(31, 119, 180);">Resolve a disagreement during a conversation</text><text text-anchor="middle" class="point-label color color-cPageofAccessknowledgeSubject symbol symbol-c" transform="translate(228.89771678966787,220.55900215252154)" dx="0px" dy="-23.60397867136315px" style="font-size: 10px; fill: rgb(214, 39, 40);">You were not familiar with the subject at all</text><text text-anchor="middle" class="point-label color color-cPageofAccessknowledgeSubject symbol symbol-c" transform="translate(211.43853301814266,655.9962571110087)" dx="0px" dy="-14.040852102694746px" style="font-size: 10px; fill: rgb(214, 39, 40);">You were not familiar with the subject, but you had some notions</text><text text-anchor="middle" class="point-label color color-cPageofAccessknowledgeSubject symbol symbol-c" transform="translate(288.3110585793358,702.6409421125462)" dx="0px" dy="-14.755182497214525px" style="font-size: 10px; fill: rgb(214, 39, 40);">You already knew some things about the subject</text><text text-anchor="middle" class="point-label color color-cPageofAccessknowledgeSubject symbol symbol-c" transform="translate(836.0603763068882,567.3974140913285)" dx="0px" dy="-25.415888026883522px" style="font-size: 10px; fill: rgb(214, 39, 40);">You had a good knowledge of the subject</text></svg></g><defs><marker id="arrow-head-explor_var-#1f77b4" markerWidth="10" markerHeight="10" refX="10" refY="4" orient="auto"><path d="M0,0 L0,8 L10,4 L0,0" style="fill: rgb(31, 119, 180);"></path></marker><marker id="arrow-head-explor_var-#d62728" markerWidth="10" markerHeight="10" refX="10" refY="4" orient="auto"><path d="M0,0 L0,8 L10,4 L0,0" style="fill: rgb(214, 39, 40);"></path></marker><marker id="arrow-head-explor_var-#2ca02c" markerWidth="10" markerHeight="10" refX="10" refY="4" orient="auto"><path d="M0,0 L0,8 L10,4 L0,0" style="fill: rgb(44, 160, 44);"></path></marker><marker id="arrow-head-explor_var-#ff7f0e" markerWidth="10" markerHeight="10" refX="10" refY="4" orient="auto"><path d="M0,0 L0,8 L10,4 L0,0" style="fill: rgb(255, 127, 14);"></path></marker><marker id="arrow-head-explor_var-#9467bd" markerWidth="10" markerHeight="10" refX="10" refY="4" orient="auto"><path d="M0,0 L0,8 L10,4 L0,0" style="fill: rgb(148, 103, 189);"></path></marker><marker id="arrow-head-explor_var-#8c564b" markerWidth="10" markerHeight="10" refX="10" refY="4" orient="auto"><path d="M0,0 L0,8 L10,4 L0,0" style="fill: rgb(140, 86, 75);"></path></marker><marker id="arrow-head-explor_var-#e377c2" markerWidth="10" markerHeight="10" refX="10" refY="4" orient="auto"><path d="M0,0 L0,8 L10,4 L0,0" style="fill: rgb(227, 119, 194);"></path></marker><marker id="arrow-head-explor_var-#7f7f7f" markerWidth="10" markerHeight="10" refX="10" refY="4" orient="auto"><path d="M0,0 L0,8 L10,4 L0,0" style="fill: rgb(127, 127, 127);"></path></marker><marker id="arrow-head-explor_var-#bcbd22" markerWidth="10" markerHeight="10" refX="10" refY="4" orient="auto"><path d="M0,0 L0,8 L10,4 L0,0" style="fill: rgb(188, 189, 34);"></path></marker><marker id="arrow-head-explor_var-#17becf" markerWidth="10" markerHeight="10" refX="10" refY="4" orient="auto"><path d="M0,0 L0,8 L10,4 L0,0" style="fill: rgb(23, 190, 207);"></path></marker></defs><g class="legend" style="font-size: 100%;"><g class="color-legend-label" transform="translate(1240.390625, 50)"><text style="fill: rgb(0, 0, 0); font-weight: bold;">Variable</text></g><g class="color-legend" transform="translate(1240.390625, 62)"><g class="legendCells"><g class="cell" transform="translate(0, 0)"><rect class="swatch" height="15" width="15" style="fill: rgb(31, 119, 180);"></rect><text class="label" transform="translate( 25, 12.5)">PageofAccessWhyOpened</text></g><g class="cell" transform="translate(0, 18)"><rect class="swatch" height="15" width="15" style="fill: rgb(214, 39, 40);"></rect><text class="label" transform="translate( 25, 12.5)">PageofAccessknowledgeSubject</text></g></g></g><g><text class="size-legend-label" transform="translate(1240.390625, 120)" style="fill: rgb(0, 0, 0); font-weight: bold; opacity: 1;">Contrib</text></g><g class="size-legend" transform="translate(1248.390625, 134)" style="opacity: 1;"><g class="legendCells"><g class="cell" transform="translate(0, 6.085805892944336)"><circle class="swatch" r="6.085806194501846"></circle><text class="label" transform="translate( 32.22222137451172,
          5)">1.7</text></g><g class="cell" transform="translate(0, 21.257417678833008)"><circle class="swatch" r="10.119910201431939"></circle><text class="label" transform="translate( 32.22222137451172,
          5)">11.3</text></g><g class="cell" transform="translate(0, 44.49723815917969)"><circle class="swatch" r="14.154014208362034"></circle><text class="label" transform="translate( 32.22222137451172,
          5)">20.9</text></g><g class="cell" transform="translate(0, 75.80526733398438)"><circle class="swatch" r="18.188118215292125"></circle><text class="label" transform="translate( 32.22222137451172,
          5)">30.5</text></g><g class="cell" transform="translate(0, 115.18150329589844)"><circle class="swatch" r="22.22222222222222"></circle><text class="label" transform="translate( 32.22222137451172,
          5)">40.1</text></g></g></g></g></svg>