coord
   ;Dim 1;Dim 2;Dim 3;Dim 4;Dim 5;Dim 6;Dim 7;Dim 8;Dim 9;Dim 10;Dim 11;Dim 12;Dim 13;Dim 14;Dim 15;Dim 16;
UsesWikipediaProSettleDebate_Not that need;-0.9826;-0.1079;-0.0177;0.0232;0.0139;0.0654;0.123;0.0328;-0.0198;-0.0338;0.145;0.1206;-0.4683;-0.0444;-0.6286;-0.006;
UsesWikipediaProSettleDebate_Other Sources preferred;0.2203;2.1125;1.5629;-0.7783;-0.2318;0.8844;-1.2431;-1.3686;0.0427;1.3847;-1.4601;-1.5768;-0.4891;0.3277;0.2085;0.0871;
UsesWikipediaProSettleDebate_Rarely;0.5312;0.3405;-0.2884;0.7439;-0.6184;-0.8425;-0.4532;0.782;0.3378;-0.3258;-0.3235;-0.1555;0.1854;0.1166;0.3443;0.0225;
UsesWikipediaProSettleDebate_Sometimes;0.6382;-0.1181;-0.4663;-0.6037;0.9386;-0.0105;0.2148;-0.6939;-0.3214;-0.4823;0.0226;0.1589;0.4091;-0.0175;0.3982;-0.0025;
UsesWikipediaProSettleDebate_Often;0.8118;-1.0927;1.0172;0.1068;-0.8045;1.1712;0.6315;0.4882;0.0763;1.2798;0.8283;0.2925;0.5758;-0.2086;0.5004;-0.0633;
UsesWikipediaProCheckSomething_Not that need;-0.9991;-0.1263;-0.0245;-0.0527;-0.0095;-0.0066;0.0799;0.0392;-0.0424;-0.0596;0.0651;-0.0134;-0.5725;-0.0749;0.5989;-0.1144;
UsesWikipediaProCheckSomething_Other Sources preferred;0.2443;2.0247;1.5109;-0.5946;0.1184;0.8741;-2.2719;0.4261;0.1162;-0.906;0.7558;1.6047;0.565;-0.8939;-0.2493;-0.0533;
UsesWikipediaProCheckSomething_Rarely;0.4595;0.6553;-0.3428;1.1618;-0.911;-0.7013;0.2904;-1.4514;-0.4446;0.3755;0.3628;0.283;0.3965;-0.1502;-0.3037;0.0315;
UsesWikipediaProCheckSomething_Sometimes;0.6111;0.0311;-0.6463;-0.5635;0.6764;-0.3443;-0.0947;0.5122;0.4019;0.7705;0.0666;-0.1856;0.2583;0.1307;-0.3629;0.0726;
UsesWikipediaProCheckSomething_Often;0.6928;-0.7931;0.7047;0.184;-0.2578;0.6995;0.3802;0.1495;-0.1633;-0.8914;-0.6557;-0.3586;0.3103;0.3127;-0.3729;0.112;
UsesWikipediaProTrain_Not that need;-1.6432;-0.2344;0.0191;-0.0015;0.0073;-0.052;-0.1142;-0.0339;0.0296;0.0941;-0.1359;-0.0293;0.6324;-0.1248;0.1206;0.867;
UsesWikipediaProTrain_Other Sources preferred;-0.0629;2.572;2.3532;-1.301;-0.0817;-1.4167;1.1983;0.9954;-1.79;-0.6138;2.2231;-1.2833;0.1668;1.5697;-0.02;0.0211;
UsesWikipediaProTrain_Rarely;0.1669;1.2177;-0.0263;1.8263;1.1298;1.0507;0.4587;-0.357;1.7498;-0.2653;0.5898;0.0505;-0.1866;0.9311;0.1313;-0.089;
UsesWikipediaProTrain_Sometimes;0.3285;0.4775;-0.9259;-0.4803;-0.5741;0.4463;0.1162;0.2124;-0.4494;0.1471;-0.4446;0.6459;-0.1714;0.4567;5e-04;-0.1848;
UsesWikipediaProTrain_Often;0.5334;-0.5423;0.3327;0.0375;0.1189;-0.3;-0.1742;-0.1079;0.0541;-0.0333;0.0448;-0.2555;-0.1699;-0.4609;-0.0754;-0.2742;
UsesWikipediaProWatchCuriosity_Not that need;-1.5291;-0.2162;0.0508;-0.001;0.0098;-0.0683;-0.2077;-0.079;0.0707;0.0709;-0.1553;-0.1069;0.8614;0.3003;-0.0526;-0.7282;
UsesWikipediaProWatchCuriosity_Other Sources preferred;-0.0166;2.395;2.5785;-1.5997;-0.1337;-1.6464;3.5051;0.113;2.0754;0.0412;-1.9117;1.61;0.0835;-1.2752;0.025;-0.0325;
UsesWikipediaProWatchCuriosity_Rarely;0.1882;1.0045;-0.0511;1.5965;1.2263;0.4445;0.3861;0.8737;-1.4626;0.4299;-0.5011;-0.0927;-0.0746;-0.74;0.0211;0.0693;
UsesWikipediaProWatchCuriosity_Sometimes;0.3008;0.469;-0.8779;-0.454;-0.5716;0.4761;0.1778;-0.0195;0.3214;-0.3674;0.412;-0.5942;-0.0743;-0.4779;-0.0191;0.1519;
UsesWikipediaProWatchCuriosity_Often;0.5274;-0.5478;0.3844;-6e-04;0.0708;-0.2711;-0.291;-0.1575;-0.0095;0.0894;0.0451;0.351;-0.3671;0.3883;0.0315;0.2519;

contrib
   ;Dim 1;Dim 2;Dim 3;Dim 4;Dim 5;Dim 6;Dim 7;Dim 8;Dim 9;Dim 10;Dim 11;Dim 12;Dim 13;Dim 14;Dim 15;Dim 16;
UsesWikipediaProSettleDebate_Not that need;14.5358;0.2543;0.008;0.0161;0.0071;0.164;0.6136;0.0461;0.0174;0.0538;1.0738;0.7628;12.0491;0.1224;32.5663;0.0039;
UsesWikipediaProSettleDebate_Other Sources preferred;0.0981;13.0804;8.3162;2.4387;0.2646;4.0242;8.4165;10.7629;0.0109;12.1475;14.6234;17.5008;1.7656;0.8944;0.4811;0.1112;
UsesWikipediaProSettleDebate_Rarely;2.526;1.505;1.254;9.8665;8.3408;16.1698;4.9526;15.5606;3.0236;2.9784;3.1793;0.7536;1.1229;0.5018;5.8106;0.0329;
UsesWikipediaProSettleDebate_Sometimes;3.9672;0.1969;3.566;7.0684;20.9028;0.0027;1.2103;13.3293;2.9776;7.0979;0.0169;0.8557;5.9485;0.0123;8.4544;5e-04;
UsesWikipediaProSettleDebate_Often;2.7409;7.1989;7.2469;0.0944;6.558;14.517;4.4684;2.8173;0.0716;21.3472;9.6823;1.2389;5.0339;0.7455;5.7013;0.1209;
UsesWikipediaProCheckSomething_Not that need;14.545;0.3369;0.0147;0.0804;0.0032;0.0016;0.2504;0.0637;0.0773;0.1621;0.2097;0.0091;17.4297;0.337;28.6064;1.3817;
UsesWikipediaProCheckSomething_Other Sources preferred;0.1249;12.4361;8.0441;1.4731;0.0714;4.068;29.0979;1.0797;0.0836;5.3823;4.056;18.761;2.4379;6.8878;0.712;0.0432;
UsesWikipediaProCheckSomething_Rarely;1.1329;3.3392;1.0615;14.418;10.8446;6.7118;1.219;32.1175;3.138;2.37;2.3951;1.4953;3.0783;0.4982;2.7079;0.0386;
UsesWikipediaProCheckSomething_Sometimes;3.7548;0.0141;7.0708;6.3561;11.2051;3.0317;0.2427;7.4966;4.8061;18.7001;0.1513;1.2062;2.4478;0.7073;7.2479;0.384;
UsesWikipediaProCheckSomething_Often;3.767;7.1559;6.5629;0.5291;1.2705;9.7718;3.0566;0.4986;0.6194;19.5402;11.4487;3.5138;2.7587;3.161;5.9751;0.7144;
UsesWikipediaProTrain_Not that need;21.6367;0.6382;0.0049;0;0.001;0.0552;0.2817;0.0261;0.0208;0.2225;0.5023;0.0239;11.6959;0.5139;0.6378;43.6716;
UsesWikipediaProTrain_Other Sources preferred;0.0049;11.9839;11.6525;4.2123;0.0203;6.3812;4.834;3.5191;11.8499;1.4753;20.9547;7.1645;0.1269;12.684;0.0027;0.004;
UsesWikipediaProTrain_Rarely;0.0857;6.6154;0.0036;20.4418;9.5702;8.6443;1.744;1.1147;27.8854;0.6787;3.6324;0.0273;0.3909;10.9908;0.2906;0.1769;
UsesWikipediaProTrain_Sometimes;1.0452;3.2017;13.9849;4.4501;7.7784;4.9097;0.3521;1.2422;5.7894;0.6565;6.4966;14.0703;1.039;8.3232;0;2.3987;
UsesWikipediaProTrain_Often;5.0945;7.6334;3.3376;0.05;0.6163;4.0982;1.4638;0.5924;0.1548;0.0621;0.1222;4.0692;1.8852;15.6676;0.5578;9.761;
UsesWikipediaProWatchCuriosity_Not that need;19.2408;0.5579;0.0357;0;0.0019;0.0977;0.9564;0.146;0.1216;0.1298;0.6733;0.3272;22.2862;3.0571;0.1248;31.6346;
UsesWikipediaProWatchCuriosity_Other Sources preferred;3e-04;7.6925;10.3576;4.7144;0.0403;6.3804;30.6163;0.0336;11.7919;0.0049;11.4715;8.3488;0.0236;6.1967;0.0032;0.0071;
UsesWikipediaProWatchCuriosity_Rarely;0.1366;5.6424;0.017;19.5783;14.1309;1.9392;1.5491;8.3678;24.4197;2.2338;3.2866;0.1155;0.0783;8.7012;0.0094;0.1345;
UsesWikipediaProWatchCuriosity_Sometimes;0.9288;3.2722;13.3169;4.2123;8.1692;5.9177;0.8741;0.0111;3.1364;4.3393;5.9088;12.6141;0.207;9.6544;0.0204;1.7166;
UsesWikipediaProWatchCuriosity_Often;4.6339;7.2449;4.1443;0;0.2034;3.1137;3.8004;1.1748;0.0044;0.4174;0.1152;7.1419;8.1946;10.3435;0.0903;7.6639;

cos2
   ;Dim 1;Dim 2;Dim 3;Dim 4;Dim 5;Dim 6;Dim 7;Dim 8;Dim 9;Dim 10;Dim 11;Dim 12;Dim 13;Dim 14;Dim 15;Dim 16;
UsesWikipediaProSettleDebate_Not that need;0.5843;0.0071;2e-04;3e-04;1e-04;0.0026;0.0092;7e-04;2e-04;7e-04;0.0127;0.0088;0.1327;0.0012;0.2392;0;
UsesWikipediaProSettleDebate_Other Sources preferred;0.0026;0.238;0.1303;0.0323;0.0029;0.0417;0.0824;0.0999;1e-04;0.1023;0.1137;0.1326;0.0128;0.0057;0.0023;4e-04;
UsesWikipediaProSettleDebate_Rarely;0.0815;0.0335;0.024;0.1599;0.1105;0.2052;0.0594;0.1767;0.033;0.0307;0.0303;0.007;0.0099;0.0039;0.0343;1e-04;
UsesWikipediaProSettleDebate_Sometimes;0.1314;0.0045;0.0701;0.1176;0.2842;0;0.0149;0.1553;0.0333;0.075;2e-04;0.0081;0.054;1e-04;0.0512;0;
UsesWikipediaProSettleDebate_Often;0.0766;0.1388;0.1203;0.0013;0.0753;0.1595;0.0464;0.0277;7e-04;0.1905;0.0798;0.0099;0.0386;0.0051;0.0291;5e-04;
UsesWikipediaProCheckSomething_Not that need;0.5735;0.0092;3e-04;0.0016;1e-04;0;0.0037;9e-04;0.001;0.002;0.0024;1e-04;0.1883;0.0032;0.2061;0.0075;
UsesWikipediaProCheckSomething_Other Sources preferred;0.0033;0.2267;0.1263;0.0196;8e-04;0.0423;0.2855;0.01;7e-04;0.0454;0.0316;0.1424;0.0177;0.0442;0.0034;2e-04;
UsesWikipediaProCheckSomething_Rarely;0.0328;0.0666;0.0182;0.2095;0.1288;0.0763;0.0131;0.3269;0.0307;0.0219;0.0204;0.0124;0.0244;0.0035;0.0143;2e-04;
UsesWikipediaProCheckSomething_Sometimes;0.1257;3e-04;0.1405;0.1068;0.1539;0.0399;0.003;0.0883;0.0544;0.1998;0.0015;0.0116;0.0224;0.0057;0.0443;0.0018;
UsesWikipediaProCheckSomething_Often;0.1174;0.1539;0.1215;0.0083;0.0163;0.1197;0.0354;0.0055;0.0065;0.1944;0.1052;0.0315;0.0236;0.0239;0.034;0.0031;
UsesWikipediaProTrain_Not that need;0.6779;0.0138;1e-04;0;0;7e-04;0.0033;3e-04;2e-04;0.0022;0.0046;2e-04;0.1004;0.0039;0.0037;0.1887;
UsesWikipediaProTrain_Other Sources preferred;1e-04;0.2137;0.1789;0.0547;2e-04;0.0648;0.0464;0.032;0.1035;0.0122;0.1597;0.0532;9e-04;0.0796;0;0;
UsesWikipediaProTrain_Rarely;0.0023;0.1238;1e-04;0.2785;0.1066;0.0922;0.0176;0.0106;0.2557;0.0059;0.0291;2e-04;0.0029;0.0724;0.0014;7e-04;
UsesWikipediaProTrain_Sometimes;0.0346;0.073;0.2746;0.0739;0.1056;0.0638;0.0043;0.0145;0.0647;0.0069;0.0633;0.1336;0.0094;0.0668;0;0.0109;
UsesWikipediaProTrain_Often;0.2313;0.239;0.09;0.0011;0.0115;0.0731;0.0247;0.0095;0.0024;9e-04;0.0016;0.0531;0.0234;0.1727;0.0046;0.0611;
UsesWikipediaProWatchCuriosity_Not that need;0.6069;0.0121;7e-04;0;0;0.0012;0.0112;0.0016;0.0013;0.0013;0.0063;0.003;0.1926;0.0234;7e-04;0.1376;
UsesWikipediaProWatchCuriosity_Other Sources preferred;0;0.136;0.1577;0.0607;4e-04;0.0643;0.2914;3e-04;0.1022;0;0.0867;0.0615;2e-04;0.0386;0;0;
UsesWikipediaProWatchCuriosity_Rarely;0.0038;0.1079;3e-04;0.2725;0.1608;0.0211;0.0159;0.0816;0.2288;0.0198;0.0269;9e-04;6e-04;0.0586;0;5e-04;
UsesWikipediaProWatchCuriosity_Sometimes;0.0313;0.0761;0.2666;0.0713;0.113;0.0784;0.0109;1e-04;0.0357;0.0467;0.0587;0.1221;0.0019;0.079;1e-04;0.008;
UsesWikipediaProWatchCuriosity_Often;0.1991;0.2147;0.1057;0;0.0036;0.0526;0.0606;0.0178;1e-04;0.0057;0.0015;0.0881;0.0965;0.1079;7e-04;0.0454;

v.test
   ;Dim 1;Dim 2;Dim 3;Dim 4;Dim 5;Dim 6;Dim 7;Dim 8;Dim 9;Dim 10;Dim 11;Dim 12;Dim 13;Dim 14;Dim 15;Dim 16;
UsesWikipediaProSettleDebate_Not that need;-79.084;-8.6873;-1.4283;1.8665;1.1198;5.2666;9.9004;2.6408;-1.5899;-2.7189;11.6697;9.7099;-37.6892;-3.5751;-50.5952;-0.4797;
UsesWikipediaProSettleDebate_Other Sources preferred;5.2626;50.4741;37.3416;-18.5947;-5.5372;21.1317;-29.7014;-32.6984;1.0192;33.0849;-34.8845;-37.6743;-11.6866;7.8295;4.9813;2.0813;
UsesWikipediaProSettleDebate_Rarely;29.5422;18.9394;-16.0405;41.3749;-34.3941;-46.8592;-25.2042;43.4931;18.7888;-18.1227;-17.9938;-8.6482;10.3102;6.4874;19.151;1.2529;
UsesWikipediaProSettleDebate_Sometimes;37.502;-6.9389;-27.4001;-35.4736;55.1531;-0.6147;12.6208;-40.7755;-18.8867;-28.3392;1.3294;9.335;24.0373;-1.0287;23.3996;-0.1488;
UsesWikipediaProSettleDebate_Often;28.6369;-38.5472;35.8846;3.7661;-28.3805;41.3179;22.2788;17.222;2.6903;45.1502;29.2213;10.319;20.3142;-7.3585;17.6532;-2.2341;
UsesWikipediaProCheckSomething_Not that need;-78.349;-9.9035;-1.9185;-4.129;-0.7424;-0.5207;6.264;3.0747;-3.3212;-4.6721;5.1074;-1.0505;-44.8943;-5.8764;46.9639;-8.9685;
UsesWikipediaProCheckSomething_Other Sources preferred;5.9443;49.2612;36.7599;-14.4657;2.8797;21.2663;-55.2775;10.366;2.8271;-22.0433;18.3893;39.0436;13.7455;-21.7479;-6.0656;-1.2976;
UsesWikipediaProCheckSomething_Rarely;18.7287;26.7066;-13.9712;47.3485;-37.1264;-28.5798;11.8373;-59.1529;-18.1201;15.304;14.7847;11.5324;16.1602;-6.1197;-12.3764;1.2834;
UsesWikipediaProCheckSomething_Sometimes;36.6751;1.8644;-38.785;-33.8147;40.592;-20.6603;-5.6808;30.7394;24.1203;46.2391;3.9975;-11.1411;15.5002;7.8427;-21.7791;4.3558;
UsesWikipediaProCheckSomething_Often;35.4502;-40.5817;36.0594;9.4145;-13.1903;35.7953;19.4568;7.6501;-8.3566;-45.6132;-33.5526;-18.3504;15.8797;16.0002;-19.0829;5.7334;
UsesWikipediaProTrain_Not that need;-85.1781;-12.1507;0.9919;-0.0799;0.3789;-2.6977;-5.9219;-1.755;1.5365;4.88;-7.0462;-1.5176;32.7807;-6.4678;6.2505;44.9433;
UsesWikipediaProTrain_Other Sources preferred;-1.1692;47.8275;43.7583;-24.193;-1.5194;-26.3433;22.2837;18.5095;-33.2863;-11.4142;41.34;-23.8633;3.1017;29.189;-0.3715;0.3918;
UsesWikipediaProTrain_Rarely;4.9895;36.4055;-0.7869;54.6012;33.7774;31.412;13.7123;-10.6726;52.313;-7.9317;17.6335;1.5089;-5.5773;27.8367;3.9267;-2.662;
UsesWikipediaProTrain_Sometimes;19.2324;27.9582;-54.2148;-28.1226;-33.6152;26.1327;6.8017;12.4368;-26.3127;8.6113;-26.0322;37.8205;-10.0375;26.7408;0.0316;-10.8207;
UsesWikipediaProTrain_Often;49.7516;-50.5821;31.0333;3.4928;11.0869;-27.9753;-16.2492;-10.0634;5.0419;-3.1026;4.1826;-23.8315;-15.842;-42.9884;-7.0366;-25.5763;
UsesWikipediaProWatchCuriosity_Not that need;-80.5973;-11.3986;2.6762;-0.0538;0.5168;-3.6011;-10.9486;-4.1648;3.7253;3.7398;-8.1853;-5.6329;45.4042;15.829;-2.7741;-38.3816;
UsesWikipediaProWatchCuriosity_Other Sources preferred;-0.2648;38.1591;41.0834;-25.4876;-2.1307;-26.2318;55.8463;1.8011;33.0665;0.6567;-30.4598;25.6527;1.3307;-20.3169;0.3983;-0.5173;
UsesWikipediaProWatchCuriosity_Rarely;6.3665;33.9832;-1.7284;54.0099;41.4853;15.038;13.0625;29.5559;-49.4805;14.5439;-16.9533;-3.1375;-2.5234;-25.0343;0.7134;2.3457;
UsesWikipediaProWatchCuriosity_Sometimes;18.3043;28.5366;-53.4139;-27.6246;-34.7814;28.9665;10.8199;-1.1881;19.5538;-22.3523;25.0658;-36.155;-4.5232;-29.0775;-1.1601;9.242;
UsesWikipediaProWatchCuriosity_Often;46.1619;-47.9409;33.6422;-0.0559;6.1959;-23.7227;-25.4717;-13.7873;-0.8294;7.8274;3.951;30.7152;-32.1325;33.9809;2.7549;22.0479;

eta2
   ;Dim 1;Dim 2;Dim 3;Dim 4;Dim 5;Dim 6;Dim 7;Dim 8;Dim 9;Dim 10;Dim 11;Dim 12;Dim 13;Dim 14;Dim 15;Dim 16;
UsesWikipediaProSettleDebate;0.5977;0.3841;0.3033;0.245;0.3708;0.3433;0.1828;0.3746;0.0516;0.3487;0.2109;0.1519;0.1779;0.0138;0.2425;9e-04;
UsesWikipediaProCheckSomething;0.5841;0.4022;0.3384;0.2874;0.2405;0.2321;0.3149;0.3635;0.0738;0.3689;0.1348;0.1797;0.1932;0.0705;0.207;0.0088;
UsesWikipediaProTrain;0.6979;0.5195;0.4311;0.3666;0.1849;0.2371;0.0807;0.0572;0.3867;0.0247;0.2341;0.1824;0.1039;0.2929;0.0068;0.1935;
UsesWikipediaProWatchCuriosity;0.6246;0.4217;0.4145;0.3585;0.2318;0.1717;0.3514;0.0858;0.3341;0.057;0.1584;0.2054;0.2113;0.2307;0.0011;0.1422;

