coord
   ;Dim 1;Dim 2;Dim 3;Dim 4;Dim 5;Dim 6;Dim 7;Dim 8;Dim 9;Dim 10;Dim 11;Dim 12;Dim 13;Dim 14;Dim 15;
UsesPersoSettleDebate_Never;0.9885;0.9388;-0.4323;-0.0705;-0.0601;-0.2497;0.2114;-0.0809;-0.066;-0.1025;-0.2875;0.4315;-1.5816;-0.0033;-0.0122;
UsesPersoSettleDebate_Rarely;0.1933;-0.2639;0.6691;0.5272;-0.5696;0.2585;-0.8193;-0.2024;-0.3907;0.0976;0.01;-0.0865;0.1347;0.056;0.0065;
UsesPersoSettleDebate_Sometimes;-0.1699;-0.3631;-0.4078;-0.3408;0.828;-0.3035;-0.0537;0.2643;0.088;-0.042;0.0382;-0.1258;0.2993;-0.0232;-0.0157;
UsesPersoSettleDebate_Often;-0.8409;0.5353;0.1391;-0.0874;-0.9111;0.487;1.4758;-0.1963;0.576;0.0131;0.148;0.0799;0.4462;-0.0451;0.0375;
UsesPersoTrain_Never;1.8465;2.1625;-0.9827;0.2532;0.0405;-0.8918;0.033;-0.5044;-0.6378;0.7538;-0.1239;1.1922;1.5512;3.402;0.1282;
UsesPersoTrain_Rarely;1.1185;0.1577;1.2332;0.881;0.6216;0.9149;-0.0549;1.7743;1.9397;0.1365;-0.1327;-0.6018;-0.357;0.6586;-0.1084;
UsesPersoTrain_Sometimes;0.6168;-0.6765;-0.3344;-0.6849;-0.2828;0.3829;0.2902;-0.2362;-0.4369;0.2298;0.0462;-0.8119;-0.1963;0.163;-0.0836;
UsesPersoTrain_Often;-0.423;0.1516;0.0471;0.1636;0.0448;-0.1988;-0.1066;-0.0638;0.0021;-0.1327;7e-04;0.3189;0.045;-0.2699;0.0372;
UsesPersoWatchCuriosity_Never;1.1975;1.3297;-0.6501;0.3997;-0.1023;-0.6995;-0.3345;-0.1382;0.6332;3.0962;0.9221;-0.3878;0.3158;-1.2325;0.1045;
UsesPersoWatchCuriosity_Rarely;0.7862;0.0687;1.0812;0.8212;1.4722;0.8652;1.2963;0.0984;-1.6105;0.2061;0.1115;0.3774;0.0849;-0.2666;0.1059;
UsesPersoWatchCuriosity_Sometimes;0.5576;-0.5712;-0.3301;-0.5972;-0.3286;0.546;-0.276;0.296;0.2292;-0.0956;0.0218;0.7652;0.1305;-0.0748;0.0656;
UsesPersoWatchCuriosity_Often;-0.4645;0.1614;0.0556;0.1394;-0.0408;-0.3268;-0.0238;-0.1439;0.0672;-0.2169;-0.0954;-0.3866;-0.0976;0.1656;-0.0538;
UsesPersoDecide_Never;1.127;0.9858;-0.2763;-0.002;-0.168;0.0863;-0.0719;0.2071;-0.1613;-0.5153;-0.6362;-0.2514;0.6125;-0.5285;-1.0379;
UsesPersoDecide_Rarely;0.3976;-0.3833;0.7688;-0.3788;0.3324;-0.2365;0.0502;-0.8715;0.4899;-0.0204;0.4814;0.2079;-0.1185;0.1163;-0.1856;
UsesPersoDecide_Sometimes;-0.1383;-0.4978;-0.5107;0.6131;-0.3229;-0.2258;0.1943;0.5459;-0.2272;-0.0441;0.401;0.0091;-0.1206;0.0916;0.1707;
UsesPersoDecide_Often;-0.9248;0.5642;0.0902;-0.503;0.2224;0.5472;-0.3033;0.0127;-0.0993;0.4062;-0.742;-0.0881;-0.0653;0.0595;0.5874;
UsesPersoInfoonPolitics_Never;1.2686;1.1139;-0.3;-0.0213;0.136;0.3289;-0.2822;-0.3167;0.1476;-1.0682;0.8261;-0.5423;0.3244;-0.3065;1.1487;
UsesPersoInfoonPolitics_Rarely;0.5371;-0.2694;0.9417;-0.6107;-0.4542;-1.0457;0.3327;0.6426;-0.2277;0.1261;-0.4492;0.0483;0.1304;-0.1052;0.2772;
UsesPersoInfoonPolitics_Sometimes;0.0858;-0.5864;-0.4422;0.6088;0.1447;0.1671;0.1147;-0.4976;0.294;0.1428;-0.5205;0.0728;0.0091;-0.0042;-0.0441;
UsesPersoInfoonPolitics_Often;-0.8208;0.4353;0.0371;-0.3068;0.0602;0.3156;-0.2265;0.2769;-0.2388;0.1196;0.5615;0.0695;-0.1918;0.166;-0.4882;

contrib
   ;Dim 1;Dim 2;Dim 3;Dim 4;Dim 5;Dim 6;Dim 7;Dim 8;Dim 9;Dim 10;Dim 11;Dim 12;Dim 13;Dim 14;Dim 15;
UsesPersoSettleDebate_Never;7.5148;9.3133;2.5971;0.0751;0.0589;1.0741;0.7719;0.1144;0.0788;0.2099;1.7483;4.0933;57.8123;3e-04;0.0043;
UsesPersoSettleDebate_Rarely;0.5943;1.5214;12.868;8.6767;10.9552;2.3802;23.9898;1.4826;5.7027;0.3939;0.0044;0.3402;0.8666;0.167;0.0025;
UsesPersoSettleDebate_Sometimes;0.6017;3.7751;6.263;4.7499;30.3256;4.2975;0.1349;3.3111;0.379;0.0957;0.0835;0.9424;5.6079;0.0374;0.0192;
UsesPersoSettleDebate_Often;6.0004;3.3414;0.2969;0.1271;14.9535;4.5069;41.5307;0.7438;6.6136;0.0038;0.5113;0.1549;5.077;0.0578;0.0446;
UsesPersoTrain_Never;4.9743;9.3746;2.5463;0.1836;0.0051;2.5982;0.0036;0.8444;1.3941;2.1543;0.0616;5.9266;10.549;56.5378;0.0897;
UsesPersoTrain_Rarely;4.2905;0.1172;9.4258;5.2245;2.8127;6.4285;0.0232;24.5627;30.3078;0.1661;0.166;3.5495;1.3132;4.981;0.1507;
UsesPersoTrain_Sometimes;5.0438;8.3363;2.6789;12.2075;2.2509;4.3541;2.5089;1.6827;5.9455;1.819;0.0779;24.9794;1.5355;1.1801;0.3462;
UsesPersoTrain_Often;6.2205;1.0986;0.1394;1.8275;0.1483;3.0784;0.8882;0.3218;3e-04;1.5912;0;10.1068;0.2114;8.4787;0.1797;
UsesPersoWatchCuriosity_Never;3.3908;5.7444;1.8059;0.7416;0.0525;2.5909;0.5944;0.1028;2.227;58.9034;5.5286;1.0165;0.7086;12.0277;0.0966;
UsesPersoWatchCuriosity_Rarely;2.6906;0.0282;9.1961;5.7618;20.0294;7.2973;16.4373;0.0959;26.5227;0.4804;0.1488;1.7721;0.0944;1.036;0.1824;
UsesPersoWatchCuriosity_Sometimes;4.625;6.67;2.9301;10.4161;3.4099;9.9325;2.5459;2.9664;1.8353;0.3536;0.0194;24.9015;0.7616;0.2789;0.2395;
UsesPersoWatchCuriosity_Often;6.758;1.121;0.1751;1.1942;0.1108;7.4904;0.04;1.4747;0.3321;3.8309;0.7847;13.384;0.8974;2.8773;0.3386;
UsesPersoDecide_Never;9.8044;10.3082;1.0651;1e-04;0.4628;0.1289;0.0897;0.7529;0.4715;5.3267;8.5921;1.3941;8.7019;7.2186;31.0951;
UsesPersoDecide_Rarely;2.1849;2.7909;14.7619;3.892;3.2423;1.731;0.0783;23.8861;7.7915;0.0149;8.8088;1.708;0.583;0.6257;1.7814;
UsesPersoDecide_Sometimes;0.3602;6.4175;8.8812;13.9038;4.171;2.1524;1.5986;12.7793;2.2859;0.0953;8.3325;0.0044;0.8235;0.5297;2.0533;
UsesPersoDecide_Often;10.7187;5.4807;0.1844;6.2227;1.3163;8.4045;2.5898;0.0046;0.29;5.3742;18.976;0.278;0.1604;0.1486;16.1694;
UsesPersoInfoonPolitics_Never;9.2726;9.824;0.9373;0.0051;0.2261;1.3957;1.0313;1.3147;0.295;17.0853;10.8137;4.8439;1.8221;1.8128;28.4314;
UsesPersoInfoonPolitics_Rarely;2.9472;1.0189;16.3739;7.4797;4.4739;25.0202;2.541;9.5971;1.2439;0.4224;5.6696;0.0681;0.5221;0.3788;2.9367;
UsesPersoInfoonPolitics_Sometimes;0.1424;9.1319;6.8298;14.0577;0.8594;1.2085;0.5716;10.8887;3.9235;1.0239;14.4013;0.2927;0.0049;0.0012;0.1407;
UsesPersoInfoonPolitics_Often;11.8648;4.5863;0.0439;3.2533;0.1353;3.9298;2.031;3.0732;2.3598;0.6549;15.2715;0.2435;1.9473;1.6246;15.6981;

cos2
   ;Dim 1;Dim 2;Dim 3;Dim 4;Dim 5;Dim 6;Dim 7;Dim 8;Dim 9;Dim 10;Dim 11;Dim 12;Dim 13;Dim 14;Dim 15;
UsesPersoSettleDebate_Never;0.1973;0.1779;0.0377;0.001;7e-04;0.0126;0.009;0.0013;9e-04;0.0021;0.0167;0.0376;0.5051;0;0;
UsesPersoSettleDebate_Rarely;0.0176;0.0327;0.2105;0.1307;0.1525;0.0314;0.3156;0.0193;0.0718;0.0045;0;0.0035;0.0085;0.0015;0;
UsesPersoSettleDebate_Sometimes;0.0205;0.0935;0.1179;0.0823;0.486;0.0653;0.002;0.0495;0.0055;0.0013;0.001;0.0112;0.0635;4e-04;2e-04;
UsesPersoSettleDebate_Often;0.1453;0.0589;0.004;0.0016;0.1705;0.0487;0.4475;0.0079;0.0682;0;0.0045;0.0013;0.0409;4e-04;3e-04;
UsesPersoTrain_Never;0.1283;0.176;0.0363;0.0024;1e-04;0.0299;0;0.0096;0.0153;0.0214;6e-04;0.0535;0.0905;0.4355;6e-04;
UsesPersoTrain_Rarely;0.0987;0.002;0.1199;0.0612;0.0305;0.066;2e-04;0.2482;0.2967;0.0015;0.0014;0.0286;0.01;0.0342;9e-04;
UsesPersoTrain_Sometimes;0.1377;0.1656;0.0405;0.1698;0.0289;0.0531;0.0305;0.0202;0.0691;0.0191;8e-04;0.2386;0.0139;0.0096;0.0025;
UsesPersoTrain_Often;0.3701;0.0476;0.0046;0.0554;0.0042;0.0818;0.0235;0.0084;0;0.0364;0;0.2104;0.0042;0.1506;0.0029;
UsesPersoWatchCuriosity_Never;0.0842;0.1038;0.0248;0.0094;6e-04;0.0287;0.0066;0.0011;0.0235;0.5628;0.0499;0.0088;0.0059;0.0892;6e-04;
UsesPersoWatchCuriosity_Rarely;0.0621;5e-04;0.1174;0.0678;0.2178;0.0752;0.1688;0.001;0.2606;0.0043;0.0012;0.0143;7e-04;0.0071;0.0011;
UsesPersoWatchCuriosity_Sometimes;0.1324;0.139;0.0464;0.152;0.046;0.127;0.0324;0.0373;0.0224;0.0039;2e-04;0.2495;0.0073;0.0024;0.0018;
UsesPersoWatchCuriosity_Often;0.335;0.0404;0.0048;0.0302;0.0026;0.1658;9e-04;0.0321;0.007;0.0731;0.0141;0.2321;0.0148;0.0426;0.0045;
UsesPersoDecide_Never;0.2596;0.1986;0.0156;0;0.0058;0.0015;0.0011;0.0088;0.0053;0.0543;0.0827;0.0129;0.0767;0.0571;0.2201;
UsesPersoDecide_Rarely;0.0621;0.0577;0.2322;0.0564;0.0434;0.022;0.001;0.2984;0.0943;2e-04;0.091;0.017;0.0055;0.0053;0.0135;
UsesPersoDecide_Sometimes;0.0115;0.1492;0.157;0.2263;0.0628;0.0307;0.0227;0.1794;0.0311;0.0012;0.0968;0;0.0088;0.0051;0.0175;
UsesPersoDecide_Often;0.2888;0.1075;0.0027;0.0854;0.0167;0.1011;0.0311;1e-04;0.0033;0.0557;0.1859;0.0026;0.0014;0.0012;0.1165;
UsesPersoInfoonPolitics_Never;0.2331;0.1797;0.013;1e-04;0.0027;0.0157;0.0115;0.0145;0.0032;0.1652;0.0988;0.0426;0.0152;0.0136;0.1911;
UsesPersoInfoonPolitics_Rarely;0.0755;0.019;0.2321;0.0976;0.054;0.2862;0.029;0.1081;0.0136;0.0042;0.0528;6e-04;0.0045;0.0029;0.0201;
UsesPersoInfoonPolitics_Sometimes;0.0046;0.2133;0.1213;0.2299;0.013;0.0173;0.0082;0.1536;0.0536;0.0126;0.1681;0.0033;1e-04;0;0.0012;
UsesPersoInfoonPolitics_Often;0.3576;0.1006;7e-04;0.0499;0.0019;0.0529;0.0272;0.0407;0.0303;0.0076;0.1674;0.0026;0.0195;0.0146;0.1265;

v.test
   ;Dim 1;Dim 2;Dim 3;Dim 4;Dim 5;Dim 6;Dim 7;Dim 8;Dim 9;Dim 10;Dim 11;Dim 12;Dim 13;Dim 14;Dim 15;
UsesPersoSettleDebate_Never;42.171;40.0492;-18.4414;-3.0095;-2.5621;-10.6537;9.0166;-3.4495;-2.8171;-4.3722;-12.2658;18.4093;-67.4732;-0.1411;-0.5191;
UsesPersoSettleDebate_Rarely;13.1098;-17.8932;45.3758;35.7529;-38.6292;17.5311;-55.5639;-13.7269;-26.496;6.6205;0.681;-5.8663;9.1315;3.7979;0.4388;
UsesPersoSettleDebate_Sometimes;-14.1688;-30.2749;-34.0031;-28.4141;69.0348;-25.3026;-4.4757;22.0347;7.3371;-3.5047;3.1825;-10.4881;24.9515;-1.9302;-1.3097;
UsesPersoSettleDebate_Often;-38.0189;24.2024;6.2904;-3.9494;-41.1918;22.0179;66.7264;-8.8743;26.0432;0.5935;6.6926;3.6132;20.1733;-2.0398;1.6942;
UsesPersoTrain_Never;32.1654;37.6694;-17.1187;4.4104;0.7046;-15.5341;0.5755;-8.7859;-11.1106;13.1311;-2.1586;20.7669;27.0206;59.2617;2.2339;
UsesPersoTrain_Rarely;30.462;4.2946;33.5859;23.993;16.9277;24.9164;-1.4949;48.3204;52.8259;3.7181;-3.6135;-16.3882;-9.7214;17.9366;-2.9521;
UsesPersoTrain_Sometimes;36.8941;-40.4624;-20.001;-40.9686;-16.9157;22.9062;17.3589;-14.1275;-26.1359;13.7444;2.7646;-48.5638;-11.7426;9.7524;-4.9984;
UsesPersoTrain_Often;-60.5728;21.7159;6.7446;23.4342;6.4197;-28.4743;-15.2696;-9.133;0.2942;-19.0045;0.0949;45.6684;6.4408;-38.6465;5.3234;
UsesPersoWatchCuriosity_Never;26.7936;29.7503;-14.5451;8.9438;-2.2879;-15.6506;-7.4838;-3.0927;14.1681;69.2751;20.6311;-8.6771;7.0658;-27.5773;2.3386;
UsesPersoWatchCuriosity_Rarely;24.3514;2.1275;33.4881;25.4352;45.5996;26.7981;40.1528;3.0485;-49.885;6.3833;3.4534;11.689;2.6313;-8.2577;3.2791;
UsesPersoWatchCuriosity_Sometimes;36.0735;-36.9558;-21.3585;-38.6408;-21.2586;35.3254;-17.8549;19.153;14.8269;-6.1874;1.409;49.5096;8.4443;-4.8406;4.2448;
UsesPersoWatchCuriosity_Often;-57.8738;20.1079;6.929;17.3652;-5.086;-40.7149;-2.9701;-17.9235;8.3708;-27.0305;-11.8923;-48.1738;-12.1653;20.637;-6.699;
UsesPersoDecide_Never;48.1841;42.1477;-11.8134;-0.0856;-7.1848;3.6917;-3.0754;8.8525;-6.8946;-22.0318;-27.2005;-10.7469;26.1859;-22.5944;-44.3742;
UsesPersoDecide_Rarely;24.457;-23.5804;47.2883;-23.2989;20.4479;-14.5465;3.0896;-53.6105;30.1346;-1.254;29.6128;12.79;-7.2878;7.1524;-11.4197;
UsesPersoDecide_Sometimes;-10.6367;-38.3019;-39.2897;47.1711;-24.8429;-17.3756;14.9494;42.0042;-17.484;-3.3935;30.851;0.6966;-9.278;7.0495;13.1331;
UsesPersoDecide_Often;-53.298;32.5121;5.2004;-28.986;12.819;31.537;-17.4774;0.7333;-5.72;23.4112;-42.7637;-5.0774;-3.7613;3.4294;33.8513;
UsesPersoInfoonPolitics_Never;45.8762;40.2829;-10.8499;-0.769;4.9167;11.8934;-10.2068;-11.4523;5.3392;-38.6302;29.875;-19.6124;11.7312;-11.0853;41.541;
UsesPersoInfoonPolitics_Rarely;27.1796;-13.6331;47.6546;-30.9055;-22.9832;-52.9183;16.836;32.5158;-11.5213;6.383;-22.7323;2.4435;6.5991;-5.3247;14.0299;
UsesPersoInfoonPolitics_Sometimes;6.7354;-46.0161;-34.7009;47.7704;11.3571;13.1126;9.0027;-39.0499;23.07;11.2045;-40.8485;5.7121;0.7179;-0.333;-3.4628;
UsesPersoInfoonPolitics_Often;-59.9743;31.8093;2.7131;-22.4161;4.3963;23.0646;-16.5538;20.2356;-17.4517;8.7411;41.0306;5.0814;-14.0159;12.1281;-35.6737;

eta2
   ;Dim 1;Dim 2;Dim 3;Dim 4;Dim 5;Dim 6;Dim 7;Dim 8;Dim 9;Dim 10;Dim 11;Dim 12;Dim 13;Dim 14;Dim 15;
UsesPersoSettleDebate;0.278;0.2469;0.2303;0.1312;0.5011;0.1034;0.5587;0.0469;0.1028;0.0051;0.0161;0.0366;0.4362;0.0015;4e-04;
UsesPersoTrain;0.3879;0.2603;0.1547;0.1872;0.0464;0.1389;0.0288;0.2277;0.3029;0.0417;0.0021;0.2946;0.0856;0.4017;0.0039;
UsesPersoWatchCuriosity;0.33;0.1865;0.1475;0.1744;0.2101;0.2305;0.165;0.0385;0.2487;0.4623;0.0445;0.2716;0.0155;0.0915;0.0043;
UsesPersoDecide;0.4359;0.3438;0.2603;0.2312;0.0818;0.1048;0.0366;0.3108;0.0872;0.0786;0.3072;0.0224;0.0646;0.0481;0.2582;
UsesPersoInfoonPolitics;0.4578;0.3378;0.2529;0.2387;0.0507;0.2663;0.0519;0.2066;0.0629;0.1395;0.3172;0.036;0.027;0.0215;0.2386;

